{
  "main": {
    "id": "d21b547b3a9664d8",
    "type": "split",
    "children": [
      {
        "id": "27767f11f4a5c41e",
        "type": "tabs",
        "children": [
          {
            "id": "3234bbcf52740fdb",
            "type": "leaf",
            "state": {
              "type": "markdown",
              "state": {
                "file": "API.md",
                "mode": "source",
                "backlinks": false,
                "source": false
              }
            }
          }
        ]
      }
    ],
    "direction": "vertical"
  },
  "left": {
    "id": "734f27c201cf5660",
    "type": "split",
    "children": [
      {
        "id": "e65b90ded2a30e84",
        "type": "tabs",
        "children": [
          {
            "id": "11778897429e5b96",
            "type": "leaf",
            "state": {
              "type": "file-explorer",
              "state": {
                "sortOrder": "alphabetical"
              }
            }
          },
          {
            "id": "138b7ef68cdc0715",
            "type": "leaf",
            "state": {
              "type": "search",
              "state": {
                "query": "tag:#диаграмма",
                "matchingCase": false,
                "explainSearch": false,
                "collapseAll": false,
                "extraContext": false,
                "sortOrder": "alphabetical"
              }
            }
          },
          {
            "id": "8c9fbccf735fd30a",
            "type": "leaf",
            "state": {
              "type": "bookmarks",
              "state": {}
            }
          }
        ]
      }
    ],
    "direction": "horizontal",
    "width": 300
  },
  "right": {
    "id": "45b3e5701e982744",
    "type": "split",
    "children": [
      {
        "id": "35fea56ed896707d",
        "type": "tabs",
        "children": [
          {
            "id": "5e245c6fafdf9430",
            "type": "leaf",
            "state": {
              "type": "backlink",
              "state": {
                "file": "API.md",
                "collapseAll": false,
                "extraContext": false,
                "sortOrder": "alphabetical",
                "showSearch": false,
                "searchQuery": "",
                "backlinkCollapsed": false,
                "unlinkedCollapsed": true
              }
            }
          },
          {
            "id": "ae8fa47272c9e09f",
            "type": "leaf",
            "state": {
              "type": "outgoing-link",
              "state": {
                "file": "API.md",
                "linksCollapsed": false,
                "unlinkedCollapsed": true
              }
            }
          },
          {
            "id": "d6845f0870887ac9",
            "type": "leaf",
            "state": {
              "type": "tag",
              "state": {
                "sortOrder": "frequency",
                "useHierarchy": true
              }
            }
          },
          {
            "id": "fd7a77ca6fa6a667",
            "type": "leaf",
            "state": {
              "type": "outline",
              "state": {
                "file": "API.md"
              }
            }
          }
        ]
      }
    ],
    "direction": "horizontal",
    "width": 300,
    "collapsed": true
  },
  "left-ribbon": {
    "hiddenItems": {
      "switcher:Меню быстрого перехода": false,
      "graph:Граф": false,
      "canvas:Создать новый холст": false,
      "daily-notes:Сегодняшняя заметка": false,
      "templates:Вставить шаблон": false,
      "command-palette:Открыть палитру команд": false
    }
  },
  "active": "3234bbcf52740fdb",
  "lastOpenFiles": [
    "Таблица принятия решений.md",
    "Граничные значения.md",
    "Postman.md",
    "00 Тестирование.md",
    "00 Youtube.md",
    "Сад, огород.md",
    "Рецепты.md",
    "Капуста маринованная.md",
    "определение, цель, роли.md",
    "Авторизация.md",
    "Без названия.md",
    "диаграммы.md",
    "00 Обучение.md",
    "Огурцы маринованные.md",
    "Капуста квашеная.md",
    "00 Python.md",
    "Идентификация Аутентификация Авторизация.md",
    "Fiddler.md",
    "Mermaid.md",
    "Блок-схема программы.md",
    "тестовый сценарий.md",
    "Тестовый сценарий.md",
    "модели разработки ПО.md",
    "SQL.md",
    "00 Контакты.md",
    "API.md",
    "CI"
  ]
}